<html>
<head>
<title>McAfee.Com Automation Sanity Suite Results</title>
</head>
<body>
<table border="1" width="80%">
<thead>
<tr>
<th colspan="3">BUILD SUMMARY:</th>
</tr>
</thead>
<tr>

  
   <tr>
   <th>Build URL</th>
   <th>http://localhost:8080/job/McAfee_Automation/</th>
   </tr>
   <tr>
   <th>Project</th>
   <th>McAfee.Com</th>
   </tr>
   <tr>
   <th>Date of Build</th>
   <th>30-5-2017</th>
   </tr>
   <tr>
   <th>Total TestCases Passed</th>
   <th>4</th>
   </tr>
   <tr>
   <th>Total TestCases Failed</th>
   <th>3</th>
   </tr>

</tr>
</table>
</body>
</html>